7 Common Functions – Education Data Workflow Desk Reference
…
 [1] "static_file_data_id" "school_code"         "school_name"        
 [4] "school_ctds"         "district_code"       "district_name"      
 [7] "district_ctds"       "charter"             "county"             
[10] "aoi"                

This converts inconsistent capitalization, spaces, and punctuation in column names into a single consistent format (typically snake_case) automatically. Our Static File sample already has clean names, so you won’t see dramatic changes here — but the moment you load a real Excel export with column headers like "School Name " (trailing space included) or "% Proficient", this single line will save you real frustration. Use it by habit on every new file you import.

7.2 select() — choosing columns

The equivalent of hiding columns in Excel, except explicit about what you’re keeping rather than what you’re hiding:

static_file |> select(SchoolName, DistrictName, Subject, Performance)

# A tibble: 35,560 × 4
   SchoolName DistrictName Subject Performance
   <chr>      <chr>        <chr>         <dbl>
 1 School 67  District 6   ELA              NA
 2 School 67  District 6   ELA               1
 3 School 67  District 6   ELA               1
 4 School 67  District 6   ELA              NA
 5 School 67  District 6   ELA               3
 6 School 67  District 6   ELA              NA
 7 School 67  District 6   ELA              NA
 8 School 67  District 6   ELA              NA
 9 School 67  District 6   ELA              NA
10 School 67  District 6   ELA              NA
# ℹ 35,550 more rows

static_file |> select(-FirstName, -MiddleName, -LastName)   # drop specific columns, keep the rest

# A tibble: 35,560 × 77
   StaticFileDataId SchoolCode SchoolName SchoolCTDS DistrictCode DistrictName
              <dbl>      <dbl> <chr>           <dbl>        <dbl> <chr>       
 1            85577         67 School 67          67            6 District 6  
 2            85580         67 School 67          67            6 District 6  
 3            85585         67 School 67          67            6 District 6  
 4            85587         67 School 67          67            6 District 6  
 5            85602         67 School 67          67            6 District 6  
 6            85605         67 School 67          67            6 District 6  
 7            85612         67 School 67          67            6 District 6  
 8            85615         67 School 67          67            6 District 6  
 9            85618         67 School 67          67            6 District 6  
10            85619         67 School 67          67            6 District 6  
# ℹ 35,550 more rows
# ℹ 71 more variables: DistrictCTDS <dbl>, Charter <dbl>, County <chr>,
#   AOI <dbl>, Alternative <dbl>, JTED <dbl>, Private <dbl>, SchoolTypeS <dbl>,
#   SchoolTypeF <dbl>, FederalModel <chr>, StateModel <chr>, FiscalYear <dbl>,
#   SAISID <dbl>, BirthDate <chr>, Gender <chr>, StudentGrade <dbl>,
#   Ethnicity <chr>, Cohort <dbl>, SPED <dbl>, IncomeEligibility1and2 <dbl>,
#   Homeless <dbl>, Foster <dbl>, FAY <dbl>, DistrictFAY <dbl>, …

static_file |> select(starts_with("EL"))   # all EL-related columns at once

# A tibble: 35,560 × 10
      EL ELGroup ELFEP ELAMathWindow ELFAY ELTested ELProf ELGrowth ELTestType  
   <dbl>   <dbl> <dbl>         <dbl> <dbl>    <dbl>  <dbl>    <dbl> <chr>       
 1     0       0     0             1     0        0     NA       NA <NA>        
 2     1       5     1             1     1        1      4        1 AZELLA Stag…
 3     1       0     1             0     0        0     NA       NA <NA>        
 4     0       0     0             1     0        0     NA       NA <NA>        
 5     0       0     0             1     0        0     NA       NA <NA>        
 6     0       0     0             1     0        0     NA       NA <NA>        
 7     0       0     0             1     0        0     NA       NA <NA>        
 8     0       0     0             1     0        0     NA       NA <NA>        
 9     0       0     0             1     0        0     NA       NA <NA>        
10     0       0     0             1     0        0     NA       NA <NA>        
# ℹ 35,550 more rows
# ℹ 1 more variable: ELTestDate <dttm>

7.3 filter() — choosing rows

The equivalent of AutoFilter, except it returns a clean result rather than just hiding rows visually:

static_file |> filter(Subject == "Math")

# A tibble: 10,694 × 80
   StaticFileDataId SchoolCode SchoolName SchoolCTDS DistrictCode DistrictName
              <dbl>      <dbl> <chr>           <dbl>        <dbl> <chr>       
 1            86607         67 School 67          67            6 District 6  
 2            86610         67 School 67          67            6 District 6  
 3            86615         67 School 67          67            6 District 6  
 4            86617         67 School 67          67            6 District 6  
 5            86632         67 School 67          67            6 District 6  
 6            86635         67 School 67          67            6 District 6  
 7            86642         67 School 67          67            6 District 6  
 8            86645         67 School 67          67            6 District 6  
 9            86648         67 School 67          67            6 District 6  
10            86649         67 School 67          67            6 District 6  
# ℹ 10,684 more rows
# ℹ 74 more variables: DistrictCTDS <dbl>, Charter <dbl>, County <chr>,
#   AOI <dbl>, Alternative <dbl>, JTED <dbl>, Private <dbl>, SchoolTypeS <dbl>,
#   SchoolTypeF <dbl>, FederalModel <chr>, StateModel <chr>, FiscalYear <dbl>,
#   SAISID <dbl>, FirstName <chr>, MiddleName <chr>, LastName <chr>,
#   BirthDate <chr>, Gender <chr>, StudentGrade <dbl>, Ethnicity <chr>,
#   Cohort <dbl>, SPED <dbl>, IncomeEligibility1and2 <dbl>, Homeless <dbl>, …

static_file |> filter(ScaleScore >= 450 & Subject == "ELA")

# A tibble: 4,166 × 80
   StaticFileDataId SchoolCode SchoolName SchoolCTDS DistrictCode DistrictName
              <dbl>      <dbl> <chr>           <dbl>        <dbl> <chr>       
 1           139020        100 School 100        100            7 District 7  
 2           139032        100 School 100        100            7 District 7  
 3           139036        100 School 100        100            7 District 7  
 4           139038        100 School 100        100            7 District 7  
 5           139040        100 School 100        100            7 District 7  
 6           139049        100 School 100        100            7 District 7  
 7           139056        100 School 100        100            7 District 7  
 8           139060        100 School 100        100            7 District 7  
 9           139068        100 School 100        100            7 District 7  
10           139070        100 School 100        100            7 District 7  
# ℹ 4,156 more rows
# ℹ 74 more variables: DistrictCTDS <dbl>, Charter <dbl>, County <chr>,
#   AOI <dbl>, Alternative <dbl>, JTED <dbl>, Private <dbl>, SchoolTypeS <dbl>,
#   SchoolTypeF <dbl>, FederalModel <chr>, StateModel <chr>, FiscalYear <dbl>,
#   SAISID <dbl>, FirstName <chr>, MiddleName <chr>, LastName <chr>,
#   BirthDate <chr>, Gender <chr>, StudentGrade <dbl>, Ethnicity <chr>,
#   Cohort <dbl>, SPED <dbl>, IncomeEligibility1and2 <dbl>, Homeless <dbl>, …

static_file |> filter(County %in% c("Maricopa", "Pima"))

# A tibble: 34,083 × 80
   StaticFileDataId SchoolCode SchoolName SchoolCTDS DistrictCode DistrictName
              <dbl>      <dbl> <chr>           <dbl>        <dbl> <chr>       
 1            85577         67 School 67          67            6 District 6  
 2            85580         67 School 67          67            6 District 6  
 3            85585         67 School 67          67            6 District 6  
 4            85587         67 School 67          67            6 District 6  
 5            85602         67 School 67          67            6 District 6  
 6            85605         67 School 67          67            6 District 6  
 7            85612         67 School 67          67            6 District 6  
 8            85615         67 School 67          67            6 District 6  
 9            85618         67 School 67          67            6 District 6  
10            85619         67 School 67          67            6 District 6  
# ℹ 34,073 more rows
# ℹ 74 more variables: DistrictCTDS <dbl>, Charter <dbl>, County <chr>,
#   AOI <dbl>, Alternative <dbl>, JTED <dbl>, Private <dbl>, SchoolTypeS <dbl>,
#   SchoolTypeF <dbl>, FederalModel <chr>, StateModel <chr>, FiscalYear <dbl>,
#   SAISID <dbl>, FirstName <chr>, MiddleName <chr>, LastName <chr>,
#   BirthDate <chr>, Gender <chr>, StudentGrade <dbl>, Ethnicity <chr>,
#   Cohort <dbl>, SPED <dbl>, IncomeEligibility1and2 <dbl>, Homeless <dbl>, …

7.4 mutate() — creating or changing a column

The equivalent of adding a formula column, applied automatically to every row (recall vectorized behavior from Fundamental Concepts):

static_file |>
  mutate(scale_score_rounded = round(ScaleScore))

# A tibble: 35,560 × 81
   StaticFileDataId SchoolCode SchoolName SchoolCTDS DistrictCode DistrictName
              <dbl>      <dbl> <chr>           <dbl>        <dbl> <chr>       
 1            85577         67 School 67          67            6 District 6  
 2            85580         67 School 67          67            6 District 6  
 3            85585         67 School 67          67            6 District 6  
 4            85587         67 School 67          67            6 District 6  
 5            85602         67 School 67          67            6 District 6  
 6            85605         67 School 67          67            6 District 6  
 7            85612         67 School 67          67            6 District 6  
 8            85615         67 School 67          67            6 District 6  
 9            85618         67 School 67          67            6 District 6  
10            85619         67 School 67          67            6 District 6  
# ℹ 35,550 more rows
# ℹ 75 more variables: DistrictCTDS <dbl>, Charter <dbl>, County <chr>,
#   AOI <dbl>, Alternative <dbl>, JTED <dbl>, Private <dbl>, SchoolTypeS <dbl>,
#   SchoolTypeF <dbl>, FederalModel <chr>, StateModel <chr>, FiscalYear <dbl>,
#   SAISID <dbl>, FirstName <chr>, MiddleName <chr>, LastName <chr>,
#   BirthDate <chr>, Gender <chr>, StudentGrade <dbl>, Ethnicity <chr>,
#   Cohort <dbl>, SPED <dbl>, IncomeEligibility1and2 <dbl>, Homeless <dbl>, …

7.5 if_else() and case_when() — conditional logic

if_else() handles a single yes/no condition — the direct equivalent of Excel’s IF():

static_file |>
  mutate(is_high_school = if_else(StudentGrade %in% c("9","10","11","12"), "High School", "Not High School"))

# A tibble: 35,560 × 81
   StaticFileDataId SchoolCode SchoolName SchoolCTDS DistrictCode DistrictName
              <dbl>      <dbl> <chr>           <dbl>        <dbl> <chr>       
 1            85577         67 School 67          67            6 District 6  
 2            85580         67 School 67          67            6 District 6  
 3            85585         67 School 67          67            6 District 6  
 4            85587         67 School 67          67            6 District 6  
 5            85602         67 School 67          67            6 District 6  
 6            85605         67 School 67          67            6 District 6  
 7            85612         67 School 67          67            6 District 6  
 8            85615         67 School 67          67            6 District 6  
 9            85618         67 School 67          67            6 District 6  
10            85619         67 School 67          67            6 District 6  
# ℹ 35,550 more rows
# ℹ 75 more variables: DistrictCTDS <dbl>, Charter <dbl>, County <chr>,
#   AOI <dbl>, Alternative <dbl>, JTED <dbl>, Private <dbl>, SchoolTypeS <dbl>,
#   SchoolTypeF <dbl>, FederalModel <chr>, StateModel <chr>, FiscalYear <dbl>,
#   SAISID <dbl>, FirstName <chr>, MiddleName <chr>, LastName <chr>,
#   BirthDate <chr>, Gender <chr>, StudentGrade <dbl>, Ethnicity <chr>,
#   Cohort <dbl>, SPED <dbl>, IncomeEligibility1and2 <dbl>, Homeless <dbl>, …

case_when() handles multiple conditions in sequence — the equivalent of a nested IF() chain, but far easier to read and far harder to make a logic error in, since it’s evaluated top to bottom and stops at the first matching condition:

static_file |>
  mutate(performance_label = case_when(
    Performance == 1 ~ "Minimally Proficient",
    Performance == 2 ~ "Partially Proficient",
    Performance == 3 ~ "Proficient",
    Performance == 4 ~ "Highly Proficient",
    TRUE              ~ NA_character_
  ))

# A tibble: 35,560 × 81
   StaticFileDataId SchoolCode SchoolName SchoolCTDS DistrictCode DistrictName
              <dbl>      <dbl> <chr>           <dbl>        <dbl> <chr>       
 1            85577         67 School 67          67            6 District 6  
 2            85580         67 School 67          67            6 District 6  
 3            85585         67 School 67          67            6 District 6  
 4            85587         67 School 67          67            6 District 6  
 5            85602         67 School 67          67            6 District 6  
 6            85605         67 School 67          67            6 District 6  
 7            85612         67 School 67          67            6 District 6  
 8            85615         67 School 67          67            6 District 6  
 9            85618         67 School 67          67            6 District 6  
10            85619         67 School 67          67            6 District 6  
# ℹ 35,550 more rows
# ℹ 75 more variables: DistrictCTDS <dbl>, Charter <dbl>, County <chr>,
#   AOI <dbl>, Alternative <dbl>, JTED <dbl>, Private <dbl>, SchoolTypeS <dbl>,
#   SchoolTypeF <dbl>, FederalModel <chr>, StateModel <chr>, FiscalYear <dbl>,
#   SAISID <dbl>, FirstName <chr>, MiddleName <chr>, LastName <chr>,
#   BirthDate <chr>, Gender <chr>, StudentGrade <dbl>, Ethnicity <chr>,
#   Cohort <dbl>, SPED <dbl>, IncomeEligibility1and2 <dbl>, Homeless <dbl>, …

The final TRUE ~ ... line is your catch-all — anything that didn’t match an earlier condition lands here. We’ve set it to NA_character_ (an explicitly-typed missing text value) since Performance is NA for students who weren’t assessed, and we want that to flow through cleanly rather than becoming a stray label.

7.6 arrange() — sorting

static_file |> arrange(DistrictName, desc(ScaleScore))

# A tibble: 35,560 × 80
   StaticFileDataId SchoolCode SchoolName SchoolCTDS DistrictCode DistrictName
              <dbl>      <dbl> <chr>           <dbl>        <dbl> <chr>       
 1           254561        311 School 311        311          104 District 104
 2           260100        311 School 311        311          104 District 104
 3           260453        311 School 311        311          104 District 104
 4           253763        311 School 311        311          104 District 104
 5           255125        311 School 311        311          104 District 104
 6           255829        311 School 311        311          104 District 104
 7           254001        311 School 311        311          104 District 104
 8           259708        311 School 311        311          104 District 104
 9           256685        311 School 311        311          104 District 104
10           254418        311 School 311        311          104 District 104
# ℹ 35,550 more rows
# ℹ 74 more variables: DistrictCTDS <dbl>, Charter <dbl>, County <chr>,
#   AOI <dbl>, Alternative <dbl>, JTED <dbl>, Private <dbl>, SchoolTypeS <dbl>,
#   SchoolTypeF <dbl>, FederalModel <chr>, StateModel <chr>, FiscalYear <dbl>,
#   SAISID <dbl>, FirstName <chr>, MiddleName <chr>, LastName <chr>,
#   BirthDate <chr>, Gender <chr>, StudentGrade <dbl>, Ethnicity <chr>,
#   Cohort <dbl>, SPED <dbl>, IncomeEligibility1and2 <dbl>, Homeless <dbl>, …

Ascending by default; wrap a column in desc() to reverse just that one — useful when, as above, you want districts alphabetical but scores highest-first within each.

7.7 rename() — renaming columns

static_file |> rename(school = SchoolName, district = DistrictName)

# A tibble: 35,560 × 80
   StaticFileDataId SchoolCode school    SchoolCTDS DistrictCode district  
              <dbl>      <dbl> <chr>          <dbl>        <dbl> <chr>     
 1            85577         67 School 67         67            6 District 6
 2            85580         67 School 67         67            6 District 6
 3            85585         67 School 67         67            6 District 6
 4            85587         67 School 67         67            6 District 6
 5            85602         67 School 67         67            6 District 6
 6            85605         67 School 67         67            6 District 6
 7            85612         67 School 67         67            6 District 6
 8            85615         67 School 67         67            6 District 6
 9            85618         67 School 67         67            6 District 6
10            85619         67 School 67         67            6 District 6
# ℹ 35,550 more rows
# ℹ 74 more variables: DistrictCTDS <dbl>, Charter <dbl>, County <chr>,
#   AOI <dbl>, Alternative <dbl>, JTED <dbl>, Private <dbl>, SchoolTypeS <dbl>,
#   SchoolTypeF <dbl>, FederalModel <chr>, StateModel <chr>, FiscalYear <dbl>,
#   SAISID <dbl>, FirstName <chr>, MiddleName <chr>, LastName <chr>,
#   BirthDate <chr>, Gender <chr>, StudentGrade <dbl>, Ethnicity <chr>,
#   Cohort <dbl>, SPED <dbl>, IncomeEligibility1and2 <dbl>, Homeless <dbl>, …
…
# A tibble: 0 × 80
# ℹ 80 variables: StaticFileDataId <dbl>, SchoolCode <dbl>, SchoolName <chr>,
#   SchoolCTDS <dbl>, DistrictCode <dbl>, DistrictName <chr>,
#   DistrictCTDS <dbl>, Charter <dbl>, County <chr>, AOI <dbl>,
#   Alternative <dbl>, JTED <dbl>, Private <dbl>, SchoolTypeS <dbl>,
#   SchoolTypeF <dbl>, FederalModel <chr>, StateModel <chr>, FiscalYear <dbl>,
#   SAISID <dbl>, FirstName <chr>, MiddleName <chr>, LastName <chr>,
#   BirthDate <chr>, Gender <chr>, StudentGrade <dbl>, Ethnicity <chr>, …

7.10 round() — controlling decimal precision

static_file |> mutate(scale_score_rounded = round(ScaleScore, 1))   # one decimal place

# A tibble: 35,560 × 81
   StaticFileDataId SchoolCode SchoolName SchoolCTDS DistrictCode DistrictName
              <dbl>      <dbl> <chr>           <dbl>        <dbl> <chr>       
 1            85577         67 School 67          67            6 District 6  
 2            85580         67 School 67          67            6 District 6  
 3            85585         67 School 67          67            6 District 6  
 4            85587         67 School 67          67            6 District 6  
 5            85602         67 School 67          67            6 District 6  
 6            85605         67 School 67          67            6 District 6  
 7            85612         67 School 67          67            6 District 6  
 8            85615         67 School 67          67            6 District 6  
 9            85618         67 School 67          67            6 District 6  
10            85619         67 School 67          67            6 District 6  
# ℹ 35,550 more rows
# ℹ 75 more variables: DistrictCTDS <dbl>, Charter <dbl>, County <chr>,
#   AOI <dbl>, Alternative <dbl>, JTED <dbl>, Private <dbl>, SchoolTypeS <dbl>,
#   SchoolTypeF <dbl>, FederalModel <chr>, StateModel <chr>, FiscalYear <dbl>,
#   SAISID <dbl>, FirstName <chr>, MiddleName <chr>, LastName <chr>,
#   BirthDate <chr>, Gender <chr>, StudentGrade <dbl>, Ethnicity <chr>,
#   Cohort <dbl>, SPED <dbl>, IncomeEligibility1and2 <dbl>, Homeless <dbl>, …
…
